{
    "config": {
        "port": "3008",
        "serverUrl": "http://172.28.1.98:9000/",
        "mongoUrl": "mongodb://salsaverde:wffp%40ss1@ds147441-a0.mlab.com:47441,ds147441-a1.mlab.com:47441/weidb?replicaSet=rs-ds147441",
        "accessdata": "accessdata"
    }
}